{
    "siswa":[
        {
            "nama":"Irelia",
            "umur":"3"
        },
        {
            "nama":"Ajeng",
            "umur":"3"
        },
        {
            "nama":"Albaroh",
            "umur":"4"
        }
    ]
}